{
    "fields": [
        {
            "name": "nom",
            "type": "string"
        },
        {
            "name": "description",
            "type": "longtext"
        },
        
        {
            "name": "user_id",
            "type": "integer#unsigned"
        }
    ],
    "foreign_keys": [
        {
            "column": "user_id",
            "references": "id",
            "on": "users",
            "onDelete": "cascade"
        }
    ],
    "relationships": [
        {
            "name": "user",
            "type": "belongsTo",
            "class": "App\\User"
        }
    ],
    "validations": [
        {
            "field": "nom",
            "rules": "required|max:200"
        }
    ]
}